{
	"photos":{
		"page":1, 
		"pages":6341, 
		"perpage":100, 
		"total":"634020", 
		"photo":[{
			"id":"5722015715", 
			"owner":"28247785@N03", 
			"secret":"432a9223fa", 
			"server":"3652", 
			"farm":4, 
			"title":"Notre Dame", 
			"ispublic":1, 
			"isfriend":0, 
			"isfamily":0
		}, {
			"id":"5721964145", 
			"owner":"50676348@N07", 
			"secret":"ae982b448b", 
			"server":"3243", 
			"farm":4, 
			"title":"Kairos Paris [0775]", 
			"ispublic":1, 
			"isfriend":0, 
			"isfamily":0
		}, {
			"id":"5721961741", 
			"owner":"50676348@N07", 
			"secret":"58824ddfe0", 
			"server":"3224", 
			"farm":4, 
			"title":"Kairos Paris [0778]", 
			"ispublic":1, 
			"isfriend":0, 
			"isfamily":0
		}, {
			"id":"5721967983", 
			"owner":"50676348@N07", 
			"secret":"d4cfde8e80", 
			"server":"3383", 
			"farm":4, 
			"title":"Kairos Paris [0774]", 
			"ispublic":1, 
			"isfriend":0, 
			"isfamily":0
		}, {
			"id":"5722522820", 
			"owner":"50676348@N07", 
			"secret":"43aa1a0ce7", 
			"server":"2427", 
			"farm":3, 
			"title":"Kairos Paris [0776]", 
			"ispublic":1, 
			"isfriend":0, 
			"isfamily":0
		}, {
			"id":"5721911941", 
			"owner":"42846000@N04", 
			"secret":"06f82e9db3", 
			"server":"2013", 
			"farm":3, 
			"title":"Ohio to Paris", 
			"ispublic":1, 
			"isfriend":0, 
			"isfamily":0
		}, {
			"id":"5722329404", 
			"owner":"93205624@N00", 
			"secret":"aee135f4c5", 
			"server":"3136", 
			"farm":4, 
			"title":"Notre Dame Cathedral", 
			"ispublic":1, 
			"isfriend":0, 
			"isfamily":0
		}, {
			"id":"5721758131", 
			"owner":"59629326@N02", 
			"secret":"404aeeedbf", 
			"server":"3187", 
			"farm":4, 
			"title":"Notre_Dame_De_Paris 05-15-2011", 
			"ispublic":1, 
			"isfriend":0, 
			"isfamily":0
		}, {
			"id":"5722317818", 
			"owner":"59629326@N02", 
			"secret":"a636c845b0", 
			"server":"3057", 
			"farm":4, 
			"title":"Notre_Dame_De_Paris9 05-15-2011", 
			"ispublic":1, 
			"isfriend":0, 
			"isfamily":0
		}, {
			"id":"5721758873", 
			"owner":"59629326@N02", 
			"secret":"f780e8d73e", 
			"server":"2105", 
			"farm":3, 
			"title":"Notre_Dame_De_Paris2 05-15-2011", 
			"ispublic":1, 
			"isfriend":0, 
			"isfamily":0
		}, {
			"id":"5722328398", 
			"owner":"59629326@N02", 
			"secret":"33c97272b6", 
			"server":"2337", 
			"farm":3, 
			"title":"Notre_Dame_De_Paris4 05-15-2011", 
			"ispublic":1, 
			"isfriend":0, 
			"isfamily":0
		}, {
			"id":"5722324702", 
			"owner":"59629326@N02", 
			"secret":"08f4f9c2e8", 
			"server":"2326", 
			"farm":3, 
			"title":"Notre_Dame_De_Paris6 05-15-2011", 
			"ispublic":1, 
			"isfriend":0, 
			"isfamily":0
		}, {
			"id":"5721772275", 
			"owner":"59629326@N02", 
			"secret":"4d9e3bf191", 
			"server":"3499", 
			"farm":4, 
			"title":"Notre_Dame_De_Paris3 05-15-2011", 
			"ispublic":1, 
			"isfriend":0, 
			"isfamily":0
		}, {
			"id":"5721768675", 
			"owner":"59629326@N02", 
			"secret":"72ba7ba0c4", 
			"server":"3101", 
			"farm":4, 
			"title":"Notre_Dame_De_Paris5 05-15-2011", 
			"ispublic":1, 
			"isfriend":0, 
			"isfamily":0
		}, {
			"id":"5722321912", 
			"owner":"59629326@N02", 
			"secret":"c5f37e01af", 
			"server":"2730", 
			"farm":3, 
			"title":"Notre_Dame_De_Paris8 05-15-2011", 
			"ispublic":1, 
			"isfriend":0, 
			"isfamily":0
		}, {
			"id":"5722323012", 
			"owner":"59629326@N02", 
			"secret":"9477b23c94", 
			"server":"3468", 
			"farm":4, 
			"title":"Notre_Dame_De_Paris7 05-15-2011", 
			"ispublic":1, 
			"isfriend":0, 
			"isfamily":0
		}, {
			"id":"5722295446", 
			"owner":"53725947@N04", 
			"secret":"a36c218b00", 
			"server":"2540", 
			"farm":3, 
			"title":"Paris (France)", 
			"ispublic":1, 
			"isfriend":0, 
			"isfamily":0
		}, {
			"id":"5722296876", 
			"owner":"53725947@N04", 
			"secret":"901c3cb1b2", 
			"server":"2753", 
			"farm":3, 
			"title":"Paris (France)", 
			"ispublic":1, 
			"isfriend":0, 
			"isfamily":0
		}, {
			"id":"5721629835", 
			"owner":"72746018@N00", 
			"secret":"8de85d50ca", 
			"server":"3041", 
			"farm":4, 
			"title":"Notre-Dame des Anges (Collioure)", 
			"ispublic":1, 
			"isfriend":0, 
			"isfamily":0
		}, {
			"id":"5722087794", 
			"owner":"42051735@N02", 
			"secret":"62b706b91f", 
			"server":"2152", 
			"farm":3, 
			"title":"La Seine", 
			"ispublic":1, 
			"isfriend":0, 
			"isfamily":0
		}, {
			"id":"5721531323", 
			"owner":"99096594@N00", 
			"secret":"84d3729399", 
			"server":"2608", 
			"farm":3, 
			"title":"Procession after mass at Notre Dame", 
			"ispublic":1, 
			"isfriend":0, 
			"isfamily":0
		}, {
			"id":"5721506737", 
			"owner":"99096594@N00", 
			"secret":"0abdef8e0a", 
			"server":"3005", 
			"farm":4, 
			"title":"St Peter's Choir at Notre Dame", 
			"ispublic":1, 
			"isfriend":0, 
			"isfamily":0
		}, {
			"id":"5721506719", 
			"owner":"99096594@N00", 
			"secret":"3982606aaa", 
			"server":"2179", 
			"farm":3, 
			"title":"St Peter's Choir at Notre Dame", 
			"ispublic":1, 
			"isfriend":0, 
			"isfamily":0
		}, {
			"id":"5721506741", 
			"owner":"99096594@N00", 
			"secret":"f89089251b", 
			"server":"3279", 
			"farm":4, 
			"title":"St Peter's Choir at Notre Dame", 
			"ispublic":1, 
			"isfriend":0, 
			"isfamily":0
		}, {
			"id":"5722074748", 
			"owner":"99096594@N00", 
			"secret":"38238d753c", 
			"server":"2346", 
			"farm":3, 
			"title":"St Peter's Choir at Notre Dame", 
			"ispublic":1, 
			"isfriend":0, 
			"isfamily":0
		}, {
			"id":"5721506703", 
			"owner":"99096594@N00", 
			"secret":"c3d1a19931", 
			"server":"3613", 
			"farm":4, 
			"title":"St Peter's Choir at Notre Dame", 
			"ispublic":1, 
			"isfriend":0, 
			"isfamily":0
		}, {
			"id":"5722074754", 
			"owner":"99096594@N00", 
			"secret":"4ae73c70c9", 
			"server":"3516", 
			"farm":4, 
			"title":"St Peter's Choir at Notre Dame", 
			"ispublic":1, 
			"isfriend":0, 
			"isfamily":0
		}, {
			"id":"5721506689", 
			"owner":"99096594@N00", 
			"secret":"f8ab33f333", 
			"server":"2696", 
			"farm":3, 
			"title":"St Peter's Choir at Notre Dame", 
			"ispublic":1, 
			"isfriend":0, 
			"isfamily":0
		}, {
			"id":"5722053222", 
			"owner":"99096594@N00", 
			"secret":"7932d14239", 
			"server":"2166", 
			"farm":3, 
			"title":"St Peter's Choir at Notre Dame", 
			"ispublic":1, 
			"isfriend":0, 
			"isfamily":0
		}, {
			"id":"5722038828", 
			"owner":"99096594@N00", 
			"secret":"e4f949cec6", 
			"server":"2005", 
			"farm":3, 
			"title":"St Peter's Church Choir at Notre Dame", 
			"ispublic":1, 
			"isfriend":0, 
			"isfamily":0
		}, {
			"id":"5722038816", 
			"owner":"99096594@N00", 
			"secret":"db2f44a69b", 
			"server":"2422", 
			"farm":3, 
			"title":"St Peter's Church Choir at Notre Dame", 
			"ispublic":1, 
			"isfriend":0, 
			"isfamily":0
		}, {
			"id":"5721491135", 
			"owner":"51081942@N07", 
			"secret":"089f612f52", 
			"server":"2612", 
			"farm":3, 
			"title":"DSC_6663.jpg", 
			"ispublic":1, 
			"isfriend":0, 
			"isfamily":0
		}, {
			"id":"5722016740", 
			"owner":"51081942@N07", 
			"secret":"c7052b56c4", 
			"server":"3318", 
			"farm":4, 
			"title":"DSC_6641.jpg", 
			"ispublic":1, 
			"isfriend":0, 
			"isfamily":0
		}, {
			"id":"5721449019", 
			"owner":"9184447@N02", 
			"secret":"2865292ffa", 
			"server":"2605", 
			"farm":3, 
			"title":"Notre Dame Basilica Montreal", 
			"ispublic":1, 
			"isfriend":0, 
			"isfamily":0
		}, {
			"id":"5721998532", 
			"owner":"9184447@N02", 
			"secret":"4836eea589", 
			"server":"2117", 
			"farm":3, 
			"title":"Notre Dame Basilica Montreal", 
			"ispublic":1, 
			"isfriend":0, 
			"isfamily":0
		}, {
			"id":"5721416289", 
			"owner":"9184447@N02", 
			"secret":"426eb9047b", 
			"server":"3043", 
			"farm":4, 
			"title":"Notre Dame Basilica Montreal", 
			"ispublic":1, 
			"isfriend":0, 
			"isfamily":0
		}, {
			"id":"5721429717", 
			"owner":"10905041@N04", 
			"secret":"ac8aa9f997", 
			"server":"3362", 
			"farm":4, 
			"title":"ramezay_groseille_01 copy", 
			"ispublic":1, 
			"isfriend":0, 
			"isfamily":0
		}, {
			"id":"5721428249", 
			"owner":"14142826@N08", 
			"secret":"06864c8c59", 
			"server":"2331", 
			"farm":3, 
			"title":"Rallye and the boats", 
			"ispublic":1, 
			"isfriend":0, 
			"isfamily":0
		}, {
			"id":"5721429435", 
			"owner":"10905041@N04", 
			"secret":"55f1a686e8", 
			"server":"3070", 
			"farm":4, 
			"title":"ramezay_tulipe_01 copy", 
			"ispublic":1, 
			"isfriend":0, 
			"isfamily":0
		}, {
			"id":"5721428965", 
			"owner":"10905041@N04", 
			"secret":"36e160dbe6", 
			"server":"3503", 
			"farm":4, 
			"title":"ramezay_tulipe_07 copy", 
			"ispublic":1, 
			"isfriend":0, 
			"isfamily":0
		}, {
			"id":"5721429855", 
			"owner":"10905041@N04", 
			"secret":"2de7c71a56", 
			"server":"3162", 
			"farm":4, 
			"title":"ramezay_tulipe_08 copy", 
			"ispublic":1, 
			"isfriend":0, 
			"isfamily":0
		}, {
			"id":"5721429809", 
			"owner":"10905041@N04", 
			"secret":"60d2444098", 
			"server":"3267", 
			"farm":4, 
			"title":"Ramezay_fontaine_ram_head_01 copy", 
			"ispublic":1, 
			"isfriend":0, 
			"isfamily":0
		}, {
			"id":"5721987982", 
			"owner":"10905041@N04", 
			"secret":"ac5687dd8f", 
			"server":"3314", 
			"farm":4, 
			"title":"ramezay_tulipe_02 copy", 
			"ispublic":1, 
			"isfriend":0, 
			"isfamily":0
		}, {
			"id":"5721988182", 
			"owner":"10905041@N04", 
			"secret":"d8050f8c40", 
			"server":"3599", 
			"farm":4, 
			"title":"ramezay_pommier_01 copy", 
			"ispublic":1, 
			"isfriend":0, 
			"isfamily":0
		}, {
			"id":"5721986578", 
			"owner":"9184447@N02", 
			"secret":"d763941c89", 
			"server":"3059", 
			"farm":4, 
			"title":"Notre Dame Basilica Montreal", 
			"ispublic":1, 
			"isfriend":0, 
			"isfamily":0
		}, {
			"id":"5721429273", 
			"owner":"10905041@N04", 
			"secret":"c791c2ae66", 
			"server":"3633", 
			"farm":4, 
			"title":"ramezay_tulipe_03 copy", 
			"ispublic":1, 
			"isfriend":0, 
			"isfamily":0
		}, {
			"id":"5721987742", 
			"owner":"10905041@N04", 
			"secret":"16f9fe25a6", 
			"server":"3410", 
			"farm":4, 
			"title":"ramezay_tulipe_05 copy", 
			"ispublic":1, 
			"isfriend":0, 
			"isfamily":0
		}, {
			"id":"5721988232", 
			"owner":"10905041@N04", 
			"secret":"353b417c8a", 
			"server":"2774", 
			"farm":3, 
			"title":"ramezay_poirier_02 copy", 
			"ispublic":1, 
			"isfriend":0, 
			"isfamily":0
		}, {
			"id":"5721987684", 
			"owner":"10905041@N04", 
			"secret":"6a1b7be967", 
			"server":"2262", 
			"farm":3, 
			"title":"ramezay_tulipe_06 copy", 
			"ispublic":1, 
			"isfriend":0, 
			"isfamily":0
		}, {
			"id":"5721429621", 
			"owner":"10905041@N04", 
			"secret":"6c3fe6a4ee", 
			"server":"3473", 
			"farm":4, 
			"title":"ramezay_poirier_01 copy", 
			"ispublic":1, 
			"isfriend":0, 
			"isfamily":0
		}, {
			"id":"5721987796", 
			"owner":"10905041@N04", 
			"secret":"52c5b796ae", 
			"server":"3653", 
			"farm":4, 
			"title":"ramezay_tulipe_04 copy", 
			"ispublic":1, 
			"isfriend":0, 
			"isfamily":0
		}, {
			"id":"5721962744", 
			"owner":"9184447@N02", 
			"secret":"ed98d5e7d2", 
			"server":"3559", 
			"farm":4, 
			"title":"Notre Dame Basilica Montreal", 
			"ispublic":1, 
			"isfriend":0, 
			"isfamily":0
		}, {
			"id":"5721951376", 
			"owner":"9184447@N02", 
			"secret":"b1a728c2df", 
			"server":"2120", 
			"farm":3, 
			"title":"Notre Dame Basilica Montreal", 
			"ispublic":1, 
			"isfriend":0, 
			"isfamily":0
		}, {
			"id":"5721954616", 
			"owner":"51081942@N07", 
			"secret":"8e12eb145e", 
			"server":"2254", 
			"farm":3, 
			"title":"DSC_6616.jpg", 
			"ispublic":1, 
			"isfriend":0, 
			"isfamily":0
		}, {
			"id":"5721410125", 
			"owner":"51081942@N07", 
			"secret":"f4879f8bb6", 
			"server":"3659", 
			"farm":4, 
			"title":"DSC_6624.jpg", 
			"ispublic":1, 
			"isfriend":0, 
			"isfamily":0
		}, {
			"id":"5721381293", 
			"owner":"86354760@N00", 
			"secret":"3d98a11bcb", 
			"server":"2795", 
			"farm":3, 
			"title":"apse", 
			"ispublic":1, 
			"isfriend":0, 
			"isfamily":0
		}, {
			"id":"5721932240", 
			"owner":"9184447@N02", 
			"secret":"063f7f3679", 
			"server":"3371", 
			"farm":4, 
			"title":"Notre Dame Basilica Montreal", 
			"ispublic":1, 
			"isfriend":0, 
			"isfamily":0
		}, {
			"id":"5721382485", 
			"owner":"86354760@N00", 
			"secret":"37afccfc25", 
			"server":"3627", 
			"farm":4, 
			"title":"Notre Dame de Paris", 
			"ispublic":1, 
			"isfriend":0, 
			"isfamily":0
		}, {
			"id":"5721943396", 
			"owner":"86354760@N00", 
			"secret":"08af275703", 
			"server":"2571", 
			"farm":3, 
			"title":"Portal of the Virgin, Portal of the Last Judgment and Portal of St-Anne", 
			"ispublic":1, 
			"isfriend":0, 
			"isfamily":0
		}, {
			"id":"5721940802", 
			"owner":"9184447@N02", 
			"secret":"1cedddbde9", 
			"server":"3648", 
			"farm":4, 
			"title":"Notre Dame Basilica Montreal", 
			"ispublic":1, 
			"isfriend":0, 
			"isfamily":0
		}, {
			"id":"5721947582", 
			"owner":"51081942@N07", 
			"secret":"7bafbc3b36", 
			"server":"2696", 
			"farm":3, 
			"title":"DSC_6592bis_stitch.jpg", 
			"ispublic":1, 
			"isfriend":0, 
			"isfamily":0
		}, {
			"id":"5721945768", 
			"owner":"31272074@N05", 
			"secret":"d3f0cc68f6", 
			"server":"2771", 
			"farm":3, 
			"title":"Notre Dame", 
			"ispublic":1, 
			"isfriend":0, 
			"isfamily":0
		}, {
			"id":"5721364919", 
			"owner":"9184447@N02", 
			"secret":"83c2ceeab3", 
			"server":"2759", 
			"farm":3, 
			"title":"Notre Dame Basilica Montreal", 
			"ispublic":1, 
			"isfriend":0, 
			"isfamily":0
		}, {
			"id":"5715124253", 
			"owner":"39513725@N02", 
			"secret":"9ca7be2216", 
			"server":"2326", 
			"farm":3, 
			"title":"Tulipanes de Notre Dame", 
			"ispublic":1, 
			"isfriend":0, 
			"isfamily":0
		}, {
			"id":"5721295119", 
			"owner":"9184447@N02", 
			"secret":"cd52f1393c", 
			"server":"3457", 
			"farm":4, 
			"title":"Picture 165", 
			"ispublic":1, 
			"isfriend":0, 
			"isfamily":0
		}, {
			"id":"5721846356", 
			"owner":"9184447@N02", 
			"secret":"b33846074e", 
			"server":"3600", 
			"farm":4, 
			"title":"Picture 163", 
			"ispublic":1, 
			"isfriend":0, 
			"isfamily":0
		}, {
			"id":"5721269885", 
			"owner":"9184447@N02", 
			"secret":"2be4e54385", 
			"server":"2714", 
			"farm":3, 
			"title":"Picture 160", 
			"ispublic":1, 
			"isfriend":0, 
			"isfamily":0
		}, {
			"id":"5721837176", 
			"owner":"9184447@N02", 
			"secret":"49eb1448d3", 
			"server":"3222", 
			"farm":4, 
			"title":"Picture 161", 
			"ispublic":1, 
			"isfriend":0, 
			"isfamily":0
		}, {
			"id":"5721245393", 
			"owner":"9184447@N02", 
			"secret":"6cc1ef891e", 
			"server":"2385", 
			"farm":3, 
			"title":"Picture 157", 
			"ispublic":1, 
			"isfriend":0, 
			"isfamily":0
		}, {
			"id":"5721820190", 
			"owner":"9184447@N02", 
			"secret":"43a8b18a71", 
			"server":"2246", 
			"farm":3, 
			"title":"Picture 158", 
			"ispublic":1, 
			"isfriend":0, 
			"isfamily":0
		}, {
			"id":"5721203391", 
			"owner":"7366555@N04", 
			"secret":"0b969d1019", 
			"server":"3277", 
			"farm":4, 
			"title":"Eglise Notre-Dame de l'Assomption. Belv\u00e8s (Dordogne), mardi 26 avril 2011.", 
			"ispublic":1, 
			"isfriend":0, 
			"isfamily":0
		}, {
			"id":"5721745686", 
			"owner":"9184447@N02", 
			"secret":"7f531e05a8", 
			"server":"2225", 
			"farm":3, 
			"title":"Notre dame basilica Montreal", 
			"ispublic":1, 
			"isfriend":0, 
			"isfamily":0
		}, {
			"id":"5721171039", 
			"owner":"9184447@N02", 
			"secret":"8f43cf1209", 
			"server":"3380", 
			"farm":4, 
			"title":"Notre dame basilica Montreal", 
			"ispublic":1, 
			"isfriend":0, 
			"isfamily":0
		}, {
			"id":"5721155397", 
			"owner":"9184447@N02", 
			"secret":"bd59159106", 
			"server":"2415", 
			"farm":3, 
			"title":"Notre dame basilica Montreal", 
			"ispublic":1, 
			"isfriend":0, 
			"isfamily":0
		}, {
			"id":"5721714232", 
			"owner":"49453623@N00", 
			"secret":"7374076370", 
			"server":"2378", 
			"farm":3, 
			"title":"The view from Notre Dame", 
			"ispublic":1, 
			"isfriend":0, 
			"isfamily":0
		}, {
			"id":"5721678468", 
			"owner":"9184447@N02", 
			"secret":"88e10966db", 
			"server":"3152", 
			"farm":4, 
			"title":"Notre dame basilica Montreal", 
			"ispublic":1, 
			"isfriend":0, 
			"isfamily":0
		}, {
			"id":"5721136495", 
			"owner":"9184447@N02", 
			"secret":"a534819ace", 
			"server":"3100", 
			"farm":4, 
			"title":"Notre dame basilica Montreal", 
			"ispublic":1, 
			"isfriend":0, 
			"isfamily":0
		}, {
			"id":"5721686376", 
			"owner":"51449684@N08", 
			"secret":"d4df7084f3", 
			"server":"3481", 
			"farm":4, 
			"title":"Notre Dame du Haut", 
			"ispublic":1, 
			"isfriend":0, 
			"isfamily":0
		}, {
			"id":"5721074671", 
			"owner":"9184447@N02", 
			"secret":"a43f18b278", 
			"server":"2744", 
			"farm":3, 
			"title":"Notre dame basilica Montreal", 
			"ispublic":1, 
			"isfriend":0, 
			"isfamily":0
		}, {
			"id":"5721613980", 
			"owner":"27232267@N08", 
			"secret":"40e8a73837", 
			"server":"2640", 
			"farm":3, 
			"title":"Laval Septembre 2010 - 134", 
			"ispublic":1, 
			"isfriend":0, 
			"isfamily":0
		}, {
			"id":"5721612660", 
			"owner":"27232267@N08", 
			"secret":"75199d4bfb", 
			"server":"3215", 
			"farm":4, 
			"title":"Laval Septembre 2010 - 131", 
			"ispublic":1, 
			"isfriend":0, 
			"isfamily":0
		}, {
			"id":"5721055803", 
			"owner":"27232267@N08", 
			"secret":"6bdccdf02a", 
			"server":"2353", 
			"farm":3, 
			"title":"Laval Septembre 2010 - 135", 
			"ispublic":1, 
			"isfriend":0, 
			"isfamily":0
		}, {
			"id":"5721608148", 
			"owner":"27232267@N08", 
			"secret":"c09377bbda", 
			"server":"2752", 
			"farm":3, 
			"title":"Laval Septembre 2010 - 119", 
			"ispublic":1, 
			"isfriend":0, 
			"isfamily":0
		}, {
			"id":"5721604670", 
			"owner":"27232267@N08", 
			"secret":"924f7590c2", 
			"server":"3661", 
			"farm":4, 
			"title":"Laval Septembre 2010 - 110", 
			"ispublic":1, 
			"isfriend":0, 
			"isfamily":0
		}, {
			"id":"5721606034", 
			"owner":"27232267@N08", 
			"secret":"cce0325eb9", 
			"server":"3242", 
			"farm":4, 
			"title":"Laval Septembre 2010 - 113", 
			"ispublic":1, 
			"isfriend":0, 
			"isfamily":0
		}, {
			"id":"5721606802", 
			"owner":"27232267@N08", 
			"secret":"091c0bf0aa", 
			"server":"2777", 
			"farm":3, 
			"title":"Laval Septembre 2010 - 115", 
			"ispublic":1, 
			"isfriend":0, 
			"isfamily":0
		}, {
			"id":"5721506725", 
			"owner":"99096594@N00", 
			"secret":"e6091723a7", 
			"server":"3031", 
			"farm":4, 
			"title":"St Peter's Choir at Notre Dame", 
			"ispublic":1, 
			"isfriend":0, 
			"isfamily":0
		}, {
			"id":"5722053214", 
			"owner":"99096594@N00", 
			"secret":"e5f99abc38", 
			"server":"3139", 
			"farm":4, 
			"title":"St Peter's Choir at Notre Dame", 
			"ispublic":1, 
			"isfriend":0, 
			"isfamily":0
		}, {
			"id":"5722053168", 
			"owner":"99096594@N00", 
			"secret":"970aa47952", 
			"server":"3613", 
			"farm":4, 
			"title":"St Peter's Choir at Notre Dame", 
			"ispublic":1, 
			"isfriend":0, 
			"isfamily":0
		}, {
			"id":"5722053180", 
			"owner":"99096594@N00", 
			"secret":"6d8d8536fe", 
			"server":"2162", 
			"farm":3, 
			"title":"St Peter's Choir at Notre Dame", 
			"ispublic":1, 
			"isfriend":0, 
			"isfamily":0
		}, {
			"id":"5722053204", 
			"owner":"99096594@N00", 
			"secret":"d42f8257c3", 
			"server":"3106", 
			"farm":4, 
			"title":"St Peter's Choir at Notre Dame", 
			"ispublic":1, 
			"isfriend":0, 
			"isfamily":0
		}, {
			"id":"5722053232", 
			"owner":"99096594@N00", 
			"secret":"faf719f133", 
			"server":"3160", 
			"farm":4, 
			"title":"St Peter's Choir at Notre Dame", 
			"ispublic":1, 
			"isfriend":0, 
			"isfamily":0
		}, {
			"id":"5721384441", 
			"owner":"57267207@N05", 
			"secret":"489152343a", 
			"server":"2394", 
			"farm":3, 
			"title":"Cath\u00e9drale Notre-Dame", 
			"ispublic":1, 
			"isfriend":0, 
			"isfamily":0
		}, {
			"id":"5721210607", 
			"owner":"22384601@N06", 
			"secret":"52827d0b27", 
			"server":"3240", 
			"farm":4, 
			"title":"Notre Dame (Paris)", 
			"ispublic":1, 
			"isfriend":0, 
			"isfamily":0
		}, {
			"id":"5721146617", 
			"owner":"31832337@N04", 
			"secret":"b384ca1da7", 
			"server":"2361", 
			"farm":3, 
			"title":"Paris, 2010", 
			"ispublic":1, 
			"isfriend":0, 
			"isfamily":0
		}, {
			"id":"5721706392", 
			"owner":"31832337@N04", 
			"secret":"c225444031", 
			"server":"3049", 
			"farm":4, 
			"title":"Paris, 2010", 
			"ispublic":1, 
			"isfriend":0, 
			"isfamily":0
		}, {
			"id":"5721691764", 
			"owner":"80206769@N00", 
			"secret":"390febb3ba", 
			"server":"2756", 
			"farm":3, 
			"title":"notre dame stra\u00dfburg - france", 
			"ispublic":1, 
			"isfriend":0, 
			"isfamily":0
		}, {
			"id":"5721134095", 
			"owner":"80206769@N00", 
			"secret":"1b43299a7d", 
			"server":"3163", 
			"farm":4, 
			"title":"notre dame stra\u00dfburg -france", 
			"ispublic":1, 
			"isfriend":0, 
			"isfamily":0
		}, {
			"id":"5721608846", 
			"owner":"27232267@N08", 
			"secret":"1e1f03d3cb", 
			"server":"3167", 
			"farm":4, 
			"title":"Laval Septembre 2010 - 121", 
			"ispublic":1, 
			"isfriend":0, 
			"isfamily":0
		}, {
			"id":"5721609466", 
			"owner":"27232267@N08", 
			"secret":"6797bf0cfa", 
			"server":"2445", 
			"farm":3, 
			"title":"Laval Septembre 2010 - 123", 
			"ispublic":1, 
			"isfriend":0, 
			"isfamily":0
		}]
		}, 
	"stat":"ok"
}